{
    "variables": {
        "user": "vagrant",
        "password": "vagrant",
        "disk_size": "90000",
        "iso_url" : "/tmp/rhel-server-7.5-x86_64-dvd.iso"
    },

    "builders":
    [
        {
            "name": "rhel7_5",

            "type": "qemu",
            "format": "qcow2",
            "accelerator": "kvm",
            "disk_size": "{{ user `disk_size`}}",

            "iso_url": "{{ user `iso_url`}}",
            "iso_checksum": "fdc2f2faa2e31f0ba77d49eab14651cf",
            "iso_checksum_type": "md5",
            
            "cpus" : "2", 
            "memory" : "4096",
            "output_directory": "/images/rhel7_5",
            "vm_name": "rhel7_5",
            "http_directory": "http",
            "headless" : "true",

            "ssh_username": "{{user `user`}}",
            "ssh_password": "{{user `password`}}",
            "ssh_wait_timeout": "90m",
            "vnc_port_min": "5905",
            "vnc_port_max": "5905",
            "shutdown_command": "echo '{{user `password`}}'|sudo -S shutdown -P now",
            "floppy_files": [ "{{template_dir}}/ks.cfg" ],
            "boot_wait": "2s",
            "boot_command": [
               "<up><wait><tab> text ks=hd:fd0:/ks.cfg<enter><wait>" 

            ]
        }
    ],

    "provisioners": [
       {
            "type": "file",
            "source": "/home/ec2-user/create_vm_from_iso/hosts.txt",
            "destination": "/tmp/hosts.txt"
       },
       {
            "type": "file",
            "source": "/tmp/file.sh",
            "destination": "/tmp/file.sh"
       },
       {
            "type": "file",
            "source": "/tmp/file.ini",
            "destination": "/tmp/file.ini"
       },
       {
            "type": "shell",
            "inline": ["chmod 777 /tmp/hosts.txt"]
       },
       {
           "type": "shell",
           "inline": ["sh /tmp/file.sh"]
       },
       {
            "type": "file",
            "source": "/home/ec2-user/create_vm_from_iso",
            "destination": "/tmp/create_vm_from_iso"

       },
       {
            "type": "file",
            "source": "/home/ec2-user/create_vm_from_iso/com.redhat.rhsa-all.xccdf.xml",
            "destination": "/tmp/com.redhat.rhsa-all.xccdf.xml"

       },
       {
            "type": "file",
            "source": "local_rpms.repo",
            "destination": "/tmp/local_rpms.repo"
       },
       {    
            "type": "file",
            "source": "/tmp/ansible_rpms",
            "destination": "/tmp/"
       
       },
       {
           "type": "shell",
           "inline": [ "echo 'vagrant' | sudo mv /tmp/local_rpms.repo /etc/yum.repos.d/" ]
       },
       {
           "type": "shell",
           "inline": ["echo 'vagrant' | sudo -S yum localinstall -y  /tmp/ansible_rpms/createrepo-0.9.9-28.el7.noarch.rpm"]
       },
       {
            "type": "shell",
            "inline": ["echo 'vagrant' | sudo -S createrepo -v /tmp/ansible_rpms/"]
       
       },
       {
            "type": "shell",
            "inline": [ "echo 'vagrant' | sudo -S yum localinstall -y /tmp/ansible_rpms/checkpolicy-2.5-6.el7.x86_64.rpm"]
       },
       {
           "type": "shell",
           "inline": ["echo 'vagrant' | sudo -S yum localinstall -y  /tmp/ansible_rpms/ansible-2.9.10-1.el7.noarch.rpm"]
       },
       {  
           "type" : "ansible-local",
           "playbook_file" : "roles/puppet_agent_install/site.yml",
           "role_paths" : "roles/puppet_agent_install",
           "extra_arguments":  [ "--inventory-file=/home/ec2-user/create_vm_from_iso/hosts.txt"]
       },
       {
           "type" : "ansible-local",
           "playbook_file" : "roles/docker_install/site.yml",
           "role_paths" : "roles/docker_install",
           "extra_arguments":  [ "--inventory-file=/home/ec2-user/create_vm_from_iso/hosts.txt"]
       },
       {
             "type": "ansible-local",
             "playbook_file": "roles/rancher_install/site.yml",
             "extra_arguments": [
                "--inventory-file=/home/ec2-user/create_vm_from_iso/hosts.txt"
              ],
             "role_paths": "roles/rancher_install"

       },       
       {
           "type" : "ansible-local",
           "playbook_file" : "roles/open_vm_tools/site.yml",
           "role_paths" : "roles/open_vm_tools",
           "extra_arguments":  [ "--inventory-file=/home/ec2-user/create_vm_from_iso/hosts.txt", "--tags=open_vm_tools_install"]
       },
       {
           "type" : "ansible-local",
           "playbook_file" : "roles/iptables/site.yml",
           "role_paths" : "roles/iptables",
           "extra_arguments":  [ "--inventory-file=/home/ec2-user/create_vm_from_iso/hosts.txt"]
       },
       {
          "playbook_file": "roles/eracent_agent_install/site.yml",
          "role_paths": "roles/eracent_agent_install",
          "type": "ansible-local"
       },
       {
           "type": "ansible-local",
            "playbook_file": "roles/oscap_scan/site.yml",
            "extra_arguments": [
                "--inventory-file=/home/ec2-user/create_vm_from_iso/hosts.txt", "--tags=ssg_oval,xccdf_results,ssg_guide,xccdf_guide"
            ],
            "role_paths": "roles/oscap_scan"

       },
       {
            "type": "file",
            "source" : "/tmp/rhel75-results.html",
            "destination" : "/images/reports/rhel75-results.htm",
            "direction" : "download",
            "generated" : "true"

       },
       {
            "type": "shell",
            "inline": ["unset NEXUS_PASSWORD"]
       },
       {
            "type": "shell",
            "inline": ["unset NEXUS_USERNAME"]
       }
      
    ]
    "post-processors": [
       {
          "type": "vagrant",
          "keep_input_artifact": true,
          "output": "{{.Provider}}-{{ user `box_name` }}-{{timestamp}}.box",
          "vagrantfile_template": "{{ user `template_dir` }}/rhel.template"
       }
   ]
}
